module gitlab.com/gotools-land/gtl/v2

go 1.22

require (
	github.com/panjf2000/ants/v2 v2.9.0
	github.com/sergi/go-diff v1.3.1
	github.com/sirupsen/logrus v1.9.3
	github.com/stretchr/testify v1.8.4
)

require (
	github.com/davecgh/go-spew v1.1.1 // indirect
	github.com/kr/pretty v0.3.1 // indirect
	github.com/pmezard/go-difflib v1.0.0 // indirect
	github.com/rogpeppe/go-internal v1.10.0 // indirect
	golang.org/x/sys v0.17.0 // indirect
	gopkg.in/check.v1 v1.0.0-20201130134442-10cb98267c6c // indirect
	gopkg.in/yaml.v3 v3.0.1 // indirect
)
